…
ny_noaa |>
  filter(!is.na(snow)) |>
  count(snow) |>
  arrange(desc(n))
```

    ## # A tibble: 281 × 2
    ##     snow       n
    ##    <dbl>   <int>
    ##  1   0   2008508
    ##  2   2.5   31022
    ##  3   1.3   23095
    ##  4   5.1   18274
    ##  5   7.6   10173
    ##  6   0.8    9962
    ##  7   0.5    9748
    ##  8   3.8    9197
    ##  9   0.3    8790
    ## 10  10.2    6552
    ## # ℹ 271 more rows
…
